Dummy UK Biobank data — get_ukb_dummy • ukbwranglr
…
# read into R
dummy_datasets %>%
  purrr::set_names() %>%
  purrr::map(get_ukb_dummy, path_only = FALSE) %>%
  purrr::map(tibble::as_tibble)
#> $dummy_Data_Dictionary_Showcase.tsv
#> # A tibble: 28 × 17
#>    Path      Category FieldID Field Participants Items Stability ValueType Units
#>    <chr>     <chr>    <chr>   <chr> <chr>        <chr> <chr>     <chr>     <chr>
#>  1 Populati… 100094   31      Sex   502413       5024… Complete  Categori… NA   
#>  2 Populati… 100094   34      Year… 502413       5024… Complete  Integer   years
#>  3 Populati… 100094   52      Mont… 502413       5024… Complete  Categori… NA   
#>  4 Assessme… 100024   53      Date… 502414       5795… Complete  Date      NA   
#>  5 Assessme… 100011   4080    Syst… 475231       1061… Complete  Integer   mmHg 
#>  6 Assessme… 100074   20001   Canc… 45950        54022 Complete  Categori… NA   
#>  7 Assessme… 100074   20002   Non-… 386743       1145… Complete  Categori… NA   
#>  8 Assessme… 100075   20003   Trea… 373347       1389… Complete  Categori… NA   
#>  9 Assessme… 100076   20004   Oper… 399178       1003… Complete  Categori… NA   
#> 10 Assessme… 100074   20006   Inte… 45950        54022 Complete  Continuo… years
#> # … with 18 more rows, and 8 more variables: ItemType <chr>, Strata <chr>,
#> #   Sexed <chr>, Instances <chr>, Array <chr>, Coding <chr>, Notes <chr>,
#> #   Link <chr>
#> 
#> $dummy_Codings.tsv
#> # A tibble: 425 × 3
#>    Coding Value Meaning 
#>    <chr>  <chr> <chr>   
#>  1 8      1     January 
#>  2 8      10    October 
#>  3 8      11    November
#>  4 8      12    December
#>  5 8      2     February
#>  6 8      3     March   
#>  7 8      4     April   
#>  8 8      5     May     
#>  9 8      6     June    
#> 10 8      7     July    
#> # … with 415 more rows
…
