UKB medication history • ukbwranglr
…
FieldID 20003 records data on type and number of medications taken, coded with data coding(https://biobank.ndph.ox.ac.uk/showcase/coding.cgi?id=4). FieldID 20076 records data on type and number of medications taken in Read code format but this does not seem to be available yet(?) Participants were not asked to provide the dates when they started these medications, however FieldID 53 records the date when participants attended the assessment centre.

Ascertaining medication history

Reshape these fields to long format (see below)

Filter for medications of interest (I cannot find a mapping file to convert these to Read codes)

field_id_pivot_longer(
  dummy_ukb_data,
  field_id = 20003,
  data_dict = dummy_data_dict,
  ukb_codings = ukb_codings
) 
#> # A tibble: 14,100 x 4
#>    eid   f20003                 f20003_value                      instance_array
#>    <chr> <chr>                  <ord>                             <chr>         
#>  1 1     treatment_medication_… sodium cromoglicate+isoprenaline… 0_0           
#>  2 1     treatment_medication_… triamterene+furosemide 50mg/40mg… 0_1           
#>  3 1     treatment_medication_… magnesium carbonate               0_2           
#>  4 1     treatment_medication_… imtack 1.25mg spray               0_3           
#>  5 1     treatment_medication_… dihydroergotamine mesylate        0_4           
#>  6 1     treatment_medication_… simple ointment bp                0_5           
#>  7 1     treatment_medication_… elidel 1% cream                   0_6           
#>  8 1     treatment_medication_… bzt - bendrofluazide              0_7           
#>  9 1     treatment_medication_… primaxin iv 250mg intravenous in… 0_8           
#> 10 1     treatment_medication_… medinol over six 250mg/5ml s/f s… 0_9           
#> # … with 14,090 more rows
…
