ukbwranglr • ukbwranglr
…
First download a copy of the UK Biobank data dictionary and codings files from the UK Biobank data showcase website. Dummy versions are used here:

# get required metadata
ukb_data_dict <- get_ukb_dummy("dummy_Data_Dictionary_Showcase.tsv")
ukb_codings <- get_ukb_dummy("dummy_Codings.tsv")

Then create a data dictionary using make_data_dict():

# make data dictionary
data_dict <- make_data_dict(ukb_main_path, 
                            ukb_data_dict = ukb_data_dict)

data_dict
#> # A tibble: 71 × 22
#>    descriptive_col… colheaders_raw colheaders_proc… FieldID instance array Path 
#>    <chr>            <chr>          <chr>            <chr>   <chr>    <chr> <chr>
#>  1 eid              eid            feid             eid     NA       NA    NA   
#>  2 sex_f31_0_0      31-0.0         f31_0_0          31      0        0     Popu…
#>  3 year_of_birth_f… 34-0.0         f34_0_0          34      0        0     Popu…
#>  4 month_of_birth_… 52-0.0         f52_0_0          52      0        0     Popu…
#>  5 ethnic_backgrou… 21000-0.0      f21000_0_0       21000   0        0     Asse…
#>  6 ethnic_backgrou… 21000-1.0      f21000_1_0       21000   1        0     Asse…
#>  7 ethnic_backgrou… 21000-2.0      f21000_2_0       21000   2        0     Asse…
#>  8 body_mass_index… 21001-0.0      f21001_0_0       21001   0        0     Asse…
#>  9 body_mass_index… 21001-1.0      f21001_1_0       21001   1        0     Asse…
#> 10 body_mass_index… 21001-2.0      f21001_2_0       21001   2        0     Asse…
#> # … with 61 more rows, and 15 more variables: Category <chr>, Field <chr>,
#> #   Participants <chr>, Items <chr>, Stability <chr>, ValueType <chr>,
#> #   Units <chr>, ItemType <chr>, Strata <chr>, Sexed <chr>, Instances <chr>,
#> #   Array <chr>, Coding <chr>, Notes <chr>, Link <chr>
…
